[
  {
    "companyInfo": {
      "companyName": "Corwin, Davis and Murray",
      "companyMotto": "global incubate e-business",
      "companyEst": "2018-09-18T15:41:36.229Z"
    },
    "employees": [
      {
        "id": "bca99f6e-8a80-4584-9527-f8affe8b371e",
        "avatar": "https://s3.amazonaws.com/uifaces/faces/twitter/aka_james/128.jpg",
        "firstName": "Daniel",
        "lastName": "Walker",
        "jobTitle": "Internal Applications Associate",
        "contactNo": "0496 007 467",
        "address": "Rodriguez Station St North Laurenport, New South Wales",
        "age": 34,
        "bio": "Ut sunt numquam sed culpa voluptatem aut veritatis cum. Quam eaque quisquam quas voluptas. Delectus culpa sed ipsa deserunt. Vero voluptates aut autem aut.",
        "dateJoined": "2019-09-26T06:52:31.645Z"
      },
      {
        "id": "c5cb9b9f-0ec5-4fc3-bea3-89538dbd9ba4",
        "avatar": "https://s3.amazonaws.com/uifaces/faces/twitter/sachingawas/128.jpg",
        "firstName": "Willow",
        "lastName": "Collier",
        "jobTitle": "Corporate Web Specialist",
        "contactNo": "0464 417 599",
        "address": "Lara Avenue Justinshire, Western Australia",
        "age": 54,
        "bio": "Officiis non id eos necessitatibus voluptatibus dolorem sint tempora repellendus. Ex veritatis qui saepe. Eius facere nemo. Molestias consequatur cumque accusamus. Eveniet expedita illum perspiciatis et dolore enim officia dolorum laudantium.",
        "dateJoined": "2017-05-04T18:08:24.364Z"
      },
      {
        "id": "2026fe65-1173-4436-81a2-0756ca68bd25",
        "avatar": "https://s3.amazonaws.com/uifaces/faces/twitter/alxndrustinov/128.jpg",
        "firstName": "Alexis",
        "lastName": "Hill",
        "jobTitle": "Legacy Tactics Consultant",
        "contactNo": "0488 568 910",
        "address": "Champlin Station St New Mitchell, Victoria",
        "age": 51,
        "bio": "Voluptatem rerum et dolorem ea et in. Ducimus nihil dolor labore quod. Voluptatum perspiciatis eaque qui ullam aut et architecto. Et laudantium repellat ipsa. Vitae sed ut laboriosam eum. Eum distinctio accusamus dolore est doloribus.",
        "dateJoined": "2021-10-30T09:32:00.835Z"
      },
      {
        "id": "bbdf0e8f-e924-4089-b08f-1b2f08091a6d",
        "avatar": "https://s3.amazonaws.com/uifaces/faces/twitter/artvavs/128.jpg",
        "firstName": "Hamish",
        "lastName": "Bayer",
        "jobTitle": "Principal Intranet Analyst",
        "contactNo": "0416 113 168",
        "address": "Owen Boulevard North Abbeyton, Tasmania",
        "age": 25,
        "bio": "Et excepturi repellendus et. Voluptatem sed aut vel et ut vitae. Labore nostrum doloribus tempora error blanditiis. Ea veritatis praesentium nihil.",
        "dateJoined": "2018-03-13T18:17:21.950Z"
      },
      {
        "id": "9405291c-d6ba-44a4-bbb9-e1204e611924",
        "avatar": "https://s3.amazonaws.com/uifaces/faces/twitter/aislinnkelly/128.jpg",
        "firstName": "Sarah",
        "lastName": "Koss",
        "jobTitle": "Global Operations Analyst",
        "contactNo": "0425 080 146",
        "address": "Sauer Court Walkerberg, Western Australia",
        "age": 49,
        "bio": "Omnis quia est libero necessitatibus provident qui voluptas qui. Repudiandae consequatur incidunt quo quas a modi eos ducimus quia. Laborum pariatur temporibus cupiditate inventore vero et harum aut. Aut laboriosam aut enim eum quae.",
        "dateJoined": "2021-09-12T19:41:41.918Z"
      },
      {
        "id": "2d0cb934-e227-430e-8752-c8ac42c33abe",
        "avatar": "https://s3.amazonaws.com/uifaces/faces/twitter/djsherman/128.jpg",
        "firstName": "Lola",
        "lastName": "Baumbach",
        "jobTitle": "District Usability Agent",
        "contactNo": "0417 589 774",
        "address": "Claudia Way Maddisonburgh, Northern Territory",
        "age": 43,
        "bio": "A illum et atque. Totam quae voluptatem ipsa neque illum natus. Nihil aliquid voluptatem. Dolores eius eum.",
        "dateJoined": "2022-05-12T12:29:04.192Z"
      },
      {
        "id": "7df90136-ff62-45ef-85b8-b071841a6236",
        "avatar": "https://s3.amazonaws.com/uifaces/faces/twitter/smalonso/128.jpg",
        "firstName": "Jesse",
        "lastName": "Smith",
        "jobTitle": "Internal Research Specialist",
        "contactNo": "0405 227 189",
        "address": "Doherty Station St South David, Western Australia",
        "age": 28,
        "bio": "Deserunt est soluta recusandae pariatur commodi in laborum. Aut laborum veritatis sint. Suscipit nihil iure eaque dolores ut dignissimos. Veritatis vel quia modi ab error reiciendis porro. Earum labore qui illum quis dolor omnis. In eveniet odit esse quasi deserunt culpa fugiat.",
        "dateJoined": "2022-11-05T18:59:44.985Z"
      },
      {
        "id": "cf45f6f8-0eb7-4b3c-ba41-35dcb1c38d7c",
        "avatar": "https://s3.amazonaws.com/uifaces/faces/twitter/pierre_nel/128.jpg",
        "firstName": "Heidi",
        "lastName": "Kessler",
        "jobTitle": "District Interactions Producer",
        "contactNo": "0448 336 351",
        "address": "Mitchell Square West Ellie, Queensland",
        "age": 51,
        "bio": "Sed nesciunt repellendus. Corrupti non odit minima. Ratione in velit ea accusamus ipsa. Eum molestiae delectus laborum.",
        "dateJoined": "2021-04-14T04:30:30.829Z"
      },
      {
        "id": "05c25ce9-e9c1-49c1-a975-ec90014bf1a3",
        "avatar": "https://s3.amazonaws.com/uifaces/faces/twitter/woodydotmx/128.jpg",
        "firstName": "Michael",
        "lastName": "Hudson",
        "jobTitle": "Legacy Operations Representative",
        "contactNo": "0464 640 551",
        "address": "Tillman Court Hugofurt, New South Wales",
        "age": 51,
        "bio": "Assumenda vel facilis magni sapiente occaecati illum. A laudantium porro aut fugiat voluptatibus corrupti cumque. Rerum totam similique eaque suscipit non qui nesciunt. Minus itaque ut beatae iure hic omnis quod ex. Reprehenderit quidem quod.",
        "dateJoined": "2022-02-28T00:41:41.596Z"
      },
      {
        "id": "84b248a6-2fee-4e02-90b4-c67f5cdb0d68",
        "avatar": "https://s3.amazonaws.com/uifaces/faces/twitter/lisovsky/128.jpg",
        "firstName": "Ashley",
        "lastName": "Borer",
        "jobTitle": "Product Metrics Orchestrator",
        "contactNo": "0443 052 934",
        "address": "Ashley Hill Sebastianview, Queensland",
        "age": 65,
        "bio": "Delectus provident minima quia. Voluptatem et non. Laudantium exercitationem necessitatibus earum voluptatem explicabo asperiores. Voluptas labore officia et repudiandae dicta autem tempore esse. Inventore omnis sunt consequatur.",
        "dateJoined": "2020-12-18T01:54:38.556Z"
      },
      {
        "id": "8a2a3725-ce39-44a5-803d-bb9a488f3b4e",
        "avatar": "https://s3.amazonaws.com/uifaces/faces/twitter/jayphen/128.jpg",
        "firstName": "Ava",
        "lastName": "Christiansen",
        "jobTitle": "Internal Quality Developer",
        "contactNo": "0411 672 973",
        "address": "Claudia Drive Port Mackenzie, Victoria",
        "age": 51,
        "bio": "Non nobis consequatur sequi culpa vero occaecati. Est quas esse. Cumque cumque voluptate ut qui excepturi debitis est rerum voluptas. Aperiam suscipit qui. Laborum voluptas exercitationem et id ex voluptatibus ullam nam. Architecto ut non nobis a qui vel delectus nemo.",
        "dateJoined": "2018-06-21T01:00:31.197Z"
      },
      {
        "id": "e8824ef9-1e76-434a-9092-4ab32d1980d8",
        "avatar": "https://s3.amazonaws.com/uifaces/faces/twitter/igorgarybaldi/128.jpg",
        "firstName": "Ruby",
        "lastName": "Casper",
        "jobTitle": "Legacy Web Agent",
        "contactNo": "0466 523 243",
        "address": "Lincoln Grove Matthewhaven, Western Australia",
        "age": 57,
        "bio": "Eos cum quia quae blanditiis quibusdam. Magni magnam placeat iusto. Libero aut et. Aspernatur et et veritatis commodi nemo. Magni saepe ab consequatur. Ad corporis perferendis consectetur voluptatem.",
        "dateJoined": "2021-05-28T12:52:03.622Z"
      }
    ]
  }
]
